# Mở file và Thêm cấu hình sau
#serdev_overlay: là tên file dtbo "serdev_overlay.dtbo"

sudo nano /boot/config.txt
	[all]
	enable_uart=1
	dtoverlay=serdev_overlay 
-------------------------------------------------------

# Cấu hình thêm

sudo raspi-config
	3 Interface Options
		I5 Serial Port
			Yes -> Ok
	finish
--------------------------------------------------------

sudo cp -r serdev_overlay.dtbo /boot/overlay/
